UNFPA Data Fellows Workshop: R Data Lab
…
However, we actually did not load in country populations when we first read in the ID4D datasets. If we look through the ID4D Global Dataset, we can see the variable Total Country Population saved in column AI. Lets quickly merge that into our existing merged_ID4D and merged_ID4D_no_India datasets.

total_population <- read_excel(path="Data/ID4D_global_2018.xlsx", 
                                    sheet="Unregistered Population Data", 
                                    range="AI2:AI200",
                                    na=c("", "n/a"), 
                                    skip=1,
                                    col_names=TRUE) # the first row contains the variable names
total_population <- cbind(global_2018[, "Country Code"],  ## need to have in country code to do the merge
                          total_population)
merged_ID4D <- merged_ID4D %>% left_join(., total_population, by="Country Code")
merged_ID4D_no_India <- merged_ID4D_no_India %>% left_join(., total_population, by="Country Code")
merged_ID4D %>% select("Economy.x", "Total Country Population")

## # A tibble: 99 x 2
##    Economy.x   `Total Country Population`
##    <chr>                            <dbl>
##  1 Afghanistan                  36373176.
##  2 Albania                       2934363 
##  3 Algeria                      42008054.
##  4 Argentina                    44688864.
##  5 Armenia                       2934152.
##  6 Azerbaijan                    9923914.
##  7 Bangladesh                  166368149.
##  8 Belarus                       9452113.
##  9 Benin                        11485674.
## 10 Bolivia                      11215674.
## # ... with 89 more rows
…
